^C:\USERS\MATEJ ANTUNOVIĆ\SOURCE\REPOS\SKLADISTE KNJIZNICE\FUNCTION.C
/c /ZI /JMC /nologo /W3 /WX- /diagnostics:column /sdl /Od /Oy- /D _DEBUG /D _CONSOLE /D _UNICODE /D UNICODE /Gm- /EHsc /RTC1 /MDd /GS /fp:precise /permissive- /Zc:wchar_t /Zc:forScope /Zc:inline /Fo"DEBUG\\" /Fd"DEBUG\VC142.PDB" /Gd /TC /analyze- /FC C:\USERS\MATEJ ANTUNOVIĆ\SOURCE\REPOS\SKLADISTE KNJIZNICE\FUNCTION.C
^C:\USERS\MATEJ ANTUNOVIĆ\SOURCE\REPOS\SKLADISTE KNJIZNICE\MAIN.C
/c /ZI /JMC /nologo /W3 /WX- /diagnostics:column /sdl /Od /Oy- /D _DEBUG /D _CONSOLE /D _UNICODE /D UNICODE /Gm- /EHsc /RTC1 /MDd /GS /fp:precise /permissive- /Zc:wchar_t /Zc:forScope /Zc:inline /Fo"DEBUG\\" /Fd"DEBUG\VC142.PDB" /Gd /TC /analyze- /FC C:\USERS\MATEJ ANTUNOVIĆ\SOURCE\REPOS\SKLADISTE KNJIZNICE\MAIN.C
